…
combined_df = bind_rows(jan_2020, jan_2024, july_2020, july_2024)

combined_df = combined_df |>
  drop_na(ride_id, start_station_name, end_station_name, duration)

print(combined_df)
```

    ## # A tibble: 99,253 × 9
    ##    ride_id   rideable_type weekdays duration start_station_name end_station_name
    ##    <chr>     <chr>         <chr>       <dbl> <chr>              <chr>           
    ##  1 4BE06CB3… classic_bike  Tuesday     15.3  Columbus Ave & W … E 53 St & Madis…
    ##  2 26886E03… classic_bike  Wednesd…     5.31 2 Ave & E 96 St    1 Ave & E 110 St
    ##  3 24DC5606… classic_bike  Friday       9.69 Columbia St & Riv… Grand St & Eliz…
    ##  4 EEDC1053… classic_bike  Sunday       7.00 W 84 St & Columbu… Columbus Ave & …
    ##  5 2CD4BD4C… classic_bike  Friday       2.85 Forsyth St & Broo… Suffolk St & St…
    ##  6 E18682F9… classic_bike  Sunday      25.5  Allen St & Hester… Atlantic Ave & …
    ##  7 B9B2E896… classic_bike  Sunday       3.65 Lafayette St & Je… Washington Pl &…
    ##  8 DEF8F504… classic_bike  Sunday      38.3  28 Ave & 44 St     Broadway & Kosc…
    ##  9 17D44DA9… classic_bike  Thursday    38.5  Barrow St & Hudso… Emerson Pl & My…
    ## 10 0FD113A3… classic_bike  Tuesday      6.52 Carlton Ave & Par… Emerson Pl & My…
    ## # ℹ 99,243 more rows
    ## # ℹ 3 more variables: member_casual <chr>, year <dbl>, month <chr>
…
